C:\Users\Jabriel\Documents\Senior_Project\DevSec\Client\src\main\java\com\example\client\serialization\ObjectIdDeserializer.java
C:\Users\Jabriel\Documents\Senior_Project\DevSec\Client\src\main\java\com\example\client\Routes.java
C:\Users\Jabriel\Documents\Senior_Project\DevSec\Client\src\main\java\com\example\client\serialization\UuidFormatter.java
C:\Users\Jabriel\Documents\Senior_Project\DevSec\Client\src\main\java\com\example\client\objectid\UserController.java
C:\Users\Jabriel\Documents\Senior_Project\DevSec\Client\src\main\java\com\example\client\LastModifiedHeaderPostprocessor.java
C:\Users\Jabriel\Documents\Senior_Project\DevSec\Client\src\main\java\com\example\client\serialization\UuidDeserializer.java
C:\Users\Jabriel\Documents\Senior_Project\DevSec\Client\src\main\java\com\example\client\objectid\UserRepository.java
C:\Users\Jabriel\Documents\Senior_Project\DevSec\Client\src\main\java\com\example\client\Server.java
C:\Users\Jabriel\Documents\Senior_Project\DevSec\Client\src\main\java\com\example\client\serialization\ObjectIdSerializer.java
C:\Users\Jabriel\Documents\Senior_Project\DevSec\Client\src\main\java\com\example\client\serialization\UuidSerializer.java
C:\Users\Jabriel\Documents\Senior_Project\DevSec\Client\src\main\java\com\example\utilities\DiagnosticController.java
C:\Users\Jabriel\Documents\Senior_Project\DevSec\Client\src\main\java\com\example\authenticate\AuthenticateJwt.java
C:\Users\Jabriel\Documents\Senior_Project\DevSec\Client\src\main\java\com\example\client\Constants.java
C:\Users\Jabriel\Documents\Senior_Project\DevSec\Client\src\main\java\com\example\client\Relationships.java
C:\Users\Jabriel\Documents\Senior_Project\DevSec\Client\src\main\java\com\example\client\objectid\UserService.java
C:\Users\Jabriel\Documents\Senior_Project\DevSec\Client\src\main\java\com\example\client\Main.java
C:\Users\Jabriel\Documents\Senior_Project\DevSec\Client\src\main\java\com\example\client\objectid\User.java
C:\Users\Jabriel\Documents\Senior_Project\DevSec\Client\src\main\java\com\example\client\Configuration.java
C:\Users\Jabriel\Documents\Senior_Project\DevSec\Client\src\main\java\com\example\client\serialization\XstreamOidConverter.java
C:\Users\Jabriel\Documents\Senior_Project\DevSec\Client\src\main\java\com\example\client\serialization\XmlSerializationProcessor.java
C:\Users\Jabriel\Documents\Senior_Project\DevSec\Client\src\main\java\com\example\client\serialization\XstreamUuidConverter.java
C:\Users\Jabriel\Documents\Senior_Project\DevSec\Client\src\main\java\com\example\client\serialization\SerializationProvider.java
C:\Users\Jabriel\Documents\Senior_Project\DevSec\Client\src\main\java\com\example\client\serialization\JsonSerializationProcessor.java
