com\example\authentication\objectid\JwtController.class
com\example\authentication\objectid\ClientController.class
com\example\authentication\serialization\JsonSerializationProcessor.class
com\example\authentication\Constants$Routes.class
com\example\authentication\objectid\ClientController$1.class
com\example\authentication\objectid\ClientService.class
com\example\authentication\Relationships.class
com\example\utilities\DiagnosticController.class
com\example\authentication\objectid\Client.class
com\example\authentication\serialization\ObjectIdDeserializer.class
com\example\authentication\Configuration.class
com\example\authentication\objectid\ClientRepository.class
com\example\authentication\Constants.class
com\example\authentication\serialization\ObjectIdSerializer.class
com\example\authentication\serialization\SerializationProvider.class
com\example\authentication\serialization\XstreamOidConverter.class
com\example\authentication\serialization\XmlSerializationProcessor.class
com\example\authentication\Main.class
com\example\authentication\LastModifiedHeaderPostprocessor.class
com\example\authentication\Constants$Url.class
com\example\authentication\Routes.class
