c:\Users\Jabriel\Documents\Senior_Project\DevSec\Authentication\src\main\java\com\example\authentication\serialization\ObjectIdDeserializer.java
c:\Users\Jabriel\Documents\Senior_Project\DevSec\Authentication\src\main\java\com\example\utilities\DiagnosticController.java
c:\Users\Jabriel\Documents\Senior_Project\DevSec\Authentication\src\main\java\com\example\authentication\LastModifiedHeaderPostprocessor.java
c:\Users\Jabriel\Documents\Senior_Project\DevSec\Authentication\src\main\java\com\example\authentication\serialization\XstreamOidConverter.java
c:\Users\Jabriel\Documents\Senior_Project\DevSec\Authentication\src\main\java\com\example\authentication\Configuration.java
c:\Users\Jabriel\Documents\Senior_Project\DevSec\Authentication\src\main\java\com\example\authentication\Routes.java
c:\Users\Jabriel\Documents\Senior_Project\DevSec\Authentication\src\main\java\com\example\authentication\Main.java
c:\Users\Jabriel\Documents\Senior_Project\DevSec\Authentication\src\main\java\com\example\authentication\Relationships.java
c:\Users\Jabriel\Documents\Senior_Project\DevSec\Authentication\src\main\java\com\example\authentication\objectid\ClientController.java
c:\Users\Jabriel\Documents\Senior_Project\DevSec\Authentication\src\main\java\com\example\authentication\Constants.java
c:\Users\Jabriel\Documents\Senior_Project\DevSec\Authentication\src\main\java\com\example\authentication\objectid\ClientRepository.java
c:\Users\Jabriel\Documents\Senior_Project\DevSec\Authentication\src\main\java\com\example\authentication\objectid\JwtController.java
c:\Users\Jabriel\Documents\Senior_Project\DevSec\Authentication\src\main\java\com\example\authentication\objectid\ClientService.java
c:\Users\Jabriel\Documents\Senior_Project\DevSec\Authentication\src\main\java\com\example\authentication\serialization\SerializationProvider.java
c:\Users\Jabriel\Documents\Senior_Project\DevSec\Authentication\src\main\java\com\example\authentication\objectid\Client.java
c:\Users\Jabriel\Documents\Senior_Project\DevSec\Authentication\src\main\java\com\example\authentication\serialization\JsonSerializationProcessor.java
c:\Users\Jabriel\Documents\Senior_Project\DevSec\Authentication\src\main\java\com\example\authentication\serialization\ObjectIdSerializer.java
c:\Users\Jabriel\Documents\Senior_Project\DevSec\Authentication\src\main\java\com\example\authentication\serialization\XmlSerializationProcessor.java
